# MagicaVoxel @ Ephtracy

# group
o 

# material
mtllib sensor01.mtl
usemtl palette

# normals
vn -1 0 0
vn 1 0 0
vn 0 0 1
vn 0 0 -1
vn 0 -1 0
vn 0 1 0

# texcoords
vt 0.939453 0.5
vt 0.943359 0.5
vt 0.970703 0.5
vt 0.978516 0.5
vt 0.982422 0.5
vt 0.986328 0.5
vt 0.990234 0.5
vt 0.994141 0.5

# verts
v -1 0.3 0.9
v -1 0.3 -1
v -1 0.4 0.9
v -1 0.4 0
v -1 0.4 -0.1
v -1 0.4 -1
v -1 0.7 0.9
v -1 0.7 0
v -1 0.7 -0.1
v -1 0.7 -0.9
v -1 0.7 -1
v -1 0.8 -0.1
v -1 0.8 -0.9
v -1 2.1 0.8
v -1 2.1 -0.8
v -1 2.3 1
v -1 2.3 0.8
v -1 3.1 -0.8
v -1 3.1 -0.9
v -1 3.2 1
v -1 3.2 0.9
v -1 3.5 1
v -1 3.5 0.9
v -1 3.8 1
v -1 3.8 0.9
v -1 4 1
v -1 4 0.9
v -1 4.1 0.9
v -1 4.1 0.8
v -1 4.1 0
v -1 4.1 -0.9
v -1 4.2 0.8
v -1 4.2 0
v -0.9 0.2 0.9
v -0.9 0.2 -0.9
v -0.9 0.3 1
v -0.9 0.3 0.9
v -0.9 0.3 -0.9
v -0.9 0.4 1
v -0.9 0.4 0.9
v -0.9 0.7 1
v -0.9 0.7 0.9
v -0.9 0.7 0
v -0.9 0.7 -0.1
v -0.9 0.7 -0.9
v -0.9 0.7 -1
v -0.9 0.8 0.9
v -0.9 0.8 0
v -0.9 0.8 -0.1
v -0.9 0.8 -0.9
v -0.9 0.8 -1
v -0.9 4.1 0.9
v -0.9 4.1 0.8
v -0.9 4.2 0.8
v -0.9 4.2 0
v -0.9 4.3 0.9
v -0.9 4.3 0
v -0.8 2.1 1
v -0.8 2.1 0.8
v -0.8 2.1 -0.8
v -0.8 2.1 -0.9
v -0.8 2.3 1
v -0.8 2.3 0.8
v -0.8 3.1 -0.8
v -0.8 3.1 -0.9
v -0.8 4.1 0
v -0.8 4.1 -0.8
v -0.8 4.3 0
v -0.8 4.3 -0.8
v -0.7 0.9 0.3
v -0.7 0.9 0
v -0.7 0.9 -0.1
v -0.7 0.9 -0.8
v -0.7 1 0.8
v -0.7 1 0.3
v -0.7 1.1 -0.7
v -0.7 1.1 -0.8
v -0.7 1.7 -0.1
v -0.7 1.7 -0.7
v -0.7 1.8 0
v -0.7 1.8 -0.5
v -0.7 2 0.8
v -0.7 2 -0.5
v -0.6 0.7 1
v -0.6 0.7 0.9
v -0.6 0.8 1
v -0.6 0.8 0.9
v -0.6 0.9 0.7
v -0.6 0.9 0.3
v -0.6 0.9 0
v -0.6 0.9 -0.1
v -0.6 1 0.7
v -0.6 1 0.3
v -0.6 1.1 -0.7
v -0.6 1.1 -0.8
v -0.6 1.6 0
v -0.6 1.6 -0.1
v -0.6 1.7 -0.1
v -0.6 1.7 -0.7
v -0.6 1.7 -0.8
v -0.6 1.8 0
v -0.6 1.8 -0.5
v -0.6 1.8 -0.7
v -0.6 1.8 -0.8
v -0.6 2 0.6
v -0.6 2 -0.5
v -0.6 2 -0.8
v -0.6 2.1 0.6
v -0.6 2.1 -0.5
v -0.5 0.8 0.6
v -0.5 0.8 0
v -0.5 0.8 -0.1
v -0.5 0.8 -0.6
v -0.5 0.9 0.6
v -0.5 0.9 0
v -0.5 0.9 -0.1
v -0.5 0.9 -0.6
v -0.5 2 0.7
v -0.5 2 0.6
v -0.5 2 -0.5
v -0.5 2 -0.7
v -0.5 2.1 0.7
v -0.5 2.1 0.6
v -0.5 2.1 -0.5
v -0.5 2.1 -0.7
v -0.5 4.3 0.6
v -0.5 4.3 -0.6
v -0.5 4.4 0.6
v -0.5 4.4 -0.6
v -0.5 4.6 -0.5
v -0.5 4.6 -0.6
v -0.5 4.7 0.6
v -0.5 4.7 -0.5
v -0.4 0.8 0
v -0.4 0.8 -0.1
v -0.4 0.9 0
v -0.4 0.9 -0.1
v -0.4 4.6 -0.5
v -0.4 4.6 -0.6
v -0.4 4.7 0.5
v -0.4 4.7 -0.4
v -0.4 4.7 -0.5
v -0.4 4.7 -0.6
v -0.4 4.9 0.5
v -0.4 4.9 0.4
v -0.4 4.9 -0.4
v -0.4 5 0.4
v -0.4 5 -0.4
v -0.4 5.1 0.4
v -0.4 5.1 -0.4
v -0.3 1 0.8
v -0.3 1 0.7
v -0.3 1.6 0.8
v -0.3 1.6 0.7
v -0.3 1.8 0.8
v -0.3 1.8 0.7
v -0.3 2 0.8
v -0.3 2 0.7
v -0.3 4.7 -0.4
v -0.3 4.7 -0.5
v -0.3 4.9 -0.4
v -0.3 5 -0.4
v -0.3 5.1 0.3
v -0.3 5.1 -0.4
v -0.3 5.1 -0.5
v -0.3 5.2 0.3
v -0.3 5.2 -0.4
v -0.2 4 1
v -0.2 4 0.9
v -0.2 4.1 1
v -0.2 4.1 0.9
v 0.1 1.4 0.8
v 0.1 1.4 0.7
v 0.1 1.8 0.8
v 0.1 1.8 0.7
v 0.3 1 0.8
v 0.3 1 0.7
v 0.3 1.2 0.8
v 0.3 1.2 0.7
v 0.3 4.7 0.5
v 0.3 4.7 0.4
v 0.3 4.7 -0.4
v 0.3 4.7 -0.5
v 0.3 4.9 0.5
v 0.3 4.9 0.4
v 0.3 5.1 -0.4
v 0.3 5.1 -0.5
v 0.5 1.2 0.8
v 0.5 1.2 0.7
v 0.5 1.4 0.8
v 0.5 1.4 0.7
v -0.4 1 0.8
v -0.4 1 0.7
v -0.4 2 0.8
v -0.4 2 0.7
v 0 1.4 0.8
v 0 1.4 0.7
v 0 1.6 0.8
v 0 1.6 0.7
v 0.1 2 0.7
v 0.1 2 0.6
v 0.1 2.1 0.7
v 0.1 2.1 0.6
v 0.1 4.9 -0.4
v 0.1 4.9 -0.5
v 0.1 5.1 -0.4
v 0.1 5.1 -0.5
v 0.2 1 0.8
v 0.2 1 0.7
v 0.2 1.4 0.8
v 0.2 1.4 0.7
v 0.2 4.7 0.5
v 0.2 4.7 0.4
v 0.2 4.7 -0.4
v 0.2 4.7 -0.5
v 0.2 4.9 0.5
v 0.2 4.9 0.4
v 0.2 4.9 -0.4
v 0.2 4.9 -0.5
v 0.4 5.1 0.3
v 0.4 5.1 -0.4
v 0.4 5.2 0.3
v 0.4 5.2 -0.4
v 0.5 0.8 0.6
v 0.5 0.8 0.5
v 0.5 0.8 0
v 0.5 0.8 -0.1
v 0.5 0.9 0.6
v 0.5 0.9 0.5
v 0.5 0.9 0
v 0.5 0.9 -0.1
v 0.5 1.9 0.8
v 0.5 1.9 0.7
v 0.5 2 0.8
v 0.5 2 0.7
v 0.5 4.7 0.5
v 0.5 4.7 -0.5
v 0.5 4.9 0.5
v 0.5 4.9 0.4
v 0.5 4.9 -0.5
v 0.5 5 0.4
v 0.5 5 -0.5
v 0.5 5.1 0.4
v 0.5 5.1 -0.5
v 0.6 0.2 0
v 0.6 0.2 -0.1
v 0.6 0.3 0
v 0.6 0.3 -0.1
v 0.6 0.8 0.5
v 0.6 0.8 0.4
v 0.6 0.8 0
v 0.6 0.8 -0.1
v 0.6 0.8 -0.6
v 0.6 0.9 0.7
v 0.6 0.9 0.6
v 0.6 0.9 0.5
v 0.6 0.9 0
v 0.6 0.9 -0.1
v 0.6 0.9 -0.6
v 0.6 1 0.7
v 0.6 1 0.6
v 0.6 2 0.6
v 0.6 2 0.2
v 0.6 2 -0.6
v 0.6 2 -0.7
v 0.6 2.1 0.6
v 0.6 2.1 0.2
v 0.6 2.1 -0.6
v 0.6 2.1 -0.7
v 0.6 4.3 0.6
v 0.6 4.3 -0.6
v 0.6 4.4 0.6
v 0.6 4.4 -0.6
v 0.6 4.7 0.6
v 0.6 4.7 -0.6
v 0.7 0.2 0.1
v 0.7 0.2 0
v 0.7 0.2 -0.1
v 0.7 0.2 -0.9
v 0.7 0.3 0.1
v 0.7 0.3 0
v 0.7 0.3 -0.1
v 0.7 0.3 -0.9
v 0.7 0.7 1
v 0.7 0.7 0.9
v 0.7 0.8 1
v 0.7 0.8 0.9
v 0.7 0.9 0.6
v 0.7 0.9 0
v 0.7 0.9 -0.1
v 0.7 1 0.8
v 0.7 1 0.7
v 0.7 1 0.6
v 0.7 1 0
v 0.7 1.6 -0.7
v 0.7 1.6 -0.8
v 0.7 1.7 0
v 0.7 1.7 -0.1
v 0.7 1.7 -0.4
v 0.7 1.7 -0.7
v 0.7 1.7 -0.8
v 0.7 1.8 -0.7
v 0.7 1.8 -0.8
v 0.7 1.9 0.8
v 0.7 1.9 0.7
v 0.7 1.9 -0.5
v 0.7 1.9 -0.8
v 0.7 2 0.2
v 0.7 2 -0.4
v 0.7 2 -0.5
v 0.7 2 -0.6
v 0.7 2.1 0.2
v 0.7 2.1 0
v 0.7 2.1 -0.3
v 0.7 2.1 -0.5
v 0.7 2.1 -0.6
v 0.7 4 1
v 0.7 4 0.9
v 0.7 4.1 1
v 0.7 4.1 0.9
v 0.8 0.9 -0.1
v 0.8 0.9 -0.8
v 0.8 1 0.7
v 0.8 1 0
v 0.8 1.6 -0.7
v 0.8 1.6 -0.8
v 0.8 1.7 0
v 0.8 1.7 -0.1
v 0.8 1.7 -0.4
v 0.8 1.7 -0.7
v 0.8 1.9 -0.5
v 0.8 1.9 -0.8
v 0.8 2 0.7
v 0.8 2 -0.4
v 0.8 2 -0.5
v 0.8 2 -0.8
v 0.8 4.1 0
v 0.8 4.1 -0.8
v 0.8 4.3 0
v 0.8 4.3 -0.8
v 0.9 0.2 0.9
v 0.9 0.2 0.1
v 0.9 0.3 1
v 0.9 0.3 0.9
v 0.9 0.3 0.1
v 0.9 0.3 0
v 0.9 0.3 -0.1
v 0.9 0.4 1
v 0.9 0.4 0.9
v 0.9 0.4 0
v 0.9 0.4 -0.1
v 0.9 0.7 1
v 0.9 0.7 0.9
v 0.9 0.7 0.5
v 0.9 0.7 0.4
v 0.9 0.7 0
v 0.9 0.7 -0.1
v 0.9 0.7 -1
v 0.9 0.8 0.9
v 0.9 0.8 0.5
v 0.9 0.8 0.4
v 0.9 0.8 -1
v 0.9 2.1 1
v 0.9 2.1 0.8
v 0.9 2.5 1
v 0.9 2.5 0.8
v 0.9 4.1 0.9
v 0.9 4.1 0.8
v 0.9 4.3 0.9
v 0.9 4.3 0.8
v 1 0.3 0.9
v 1 0.3 0
v 1 0.3 -0.1
v 1 0.3 -1
v 1 0.4 0.9
v 1 0.4 0.5
v 1 0.4 0.4
v 1 0.4 0
v 1 0.4 -0.1
v 1 0.4 -1
v 1 0.7 0.9
v 1 0.7 0.5
v 1 0.7 0.4
v 1 0.7 0
v 1 0.7 -0.1
v 1 0.7 -1
v 1 2.1 0.8
v 1 2.1 -0.9
v 1 2.5 1
v 1 2.5 0.8
v 1 3.3 1
v 1 3.3 0.9
v 1 3.5 1
v 1 3.5 0.9
v 1 3.8 1
v 1 3.8 0.9
v 1 4 1
v 1 4 0.9
v 1 4.1 0.9
v 1 4.1 0.8
v 1 4.1 0
v 1 4.1 -0.9
v 1 4.3 0.8
v 1 4.3 0
v -1 2.3 1
v -1 3.2 1
v -1 3.5 1
v -1 3.8 1
v -1 4 1
v -0.9 0.3 1
v -0.9 0.4 1
v -0.9 0.7 1
v -0.9 2.6 1
v -0.9 3 1
v -0.8 2.1 1
v -0.8 2.3 1
v -0.8 2.5 1
v -0.8 2.6 1
v -0.8 3 1
v -0.8 3.1 1
v -0.7 2.7 1
v -0.7 2.9 1
v -0.6 0.7 1
v -0.6 0.8 1
v -0.6 3 1
v -0.6 3.1 1
v -0.5 2.5 1
v -0.5 2.6 1
v -0.5 2.7 1
v -0.5 2.8 1
v -0.5 2.9 1
v -0.5 3 1
v -0.5 3.1 1
v -0.5 3.2 1
v -0.5 3.3 1
v -0.5 3.4 1
v -0.5 3.5 1
v -0.5 3.6 1
v -0.4 3.4 1
v -0.4 3.5 1
v -0.3 2.6 1
v -0.3 2.7 1
v -0.3 2.8 1
v -0.3 2.9 1
v -0.3 3.5 1
v -0.3 3.6 1
v -0.3 3.7 1
v -0.2 3 1
v -0.2 3.1 1
v -0.2 3.2 1
v -0.2 3.3 1
v -0.2 3.8 1
v -0.2 3.9 1
v -0.2 4 1
v -0.2 4.1 1
v -0.1 2.7 1
v -0.1 2.8 1
v -0.1 2.9 1
v -0.1 3 1
v -0.1 3.6 1
v -0.1 3.7 1
v -0.1 3.8 1
v 0.1 2.8 1
v 0.1 2.9 1
v 0.1 3.4 1
v 0.1 3.7 1
v 0.2 3.3 1
v 0.2 3.4 1
v 0.3 0.4 1
v 0.3 0.8 1
v 0.3 2.9 1
v 0.3 3 1
v 0.3 3.6 1
v 0.3 3.7 1
v 0.4 0.4 1
v 0.4 0.8 1
v 0.4 2.5 1
v 0.4 3 1
v 0.4 3.3 1
v 0.4 3.4 1
v 0.4 3.6 1
v 0.4 3.7 1
v 0.5 2.5 1
v 0.5 2.7 1
v 0.5 3.4 1
v 0.5 3.7 1
v 0.6 2.7 1
v 0.6 3.1 1
v 0.6 3.2 1
v 0.6 3.3 1
v 0.6 3.6 1
v 0.6 3.7 1
v 0.6 3.8 1
v 0.7 0.7 1
v 0.7 0.8 1
v 0.7 3.3 1
v 0.7 3.6 1
v 0.7 3.7 1
v 0.7 3.8 1
v 0.7 3.9 1
v 0.7 4 1
v 0.7 4.1 1
v 0.8 3.1 1
v 0.8 3.2 1
v 0.8 3.5 1
v 0.8 3.6 1
v 0.9 0.3 1
v 0.9 0.4 1
v 0.9 0.7 1
v 0.9 2.1 1
v 0.9 2.5 1
v 0.9 3.2 1
v 0.9 3.3 1
v 1 2.5 1
v 1 3.3 1
v 1 3.5 1
v 1 3.8 1
v 1 4 1
v -1 0.3 0.9
v -1 0.4 0.9
v -1 0.7 0.9
v -1 4 0.9
v -1 4.1 0.9
v -0.9 0.2 0.9
v -0.9 0.3 0.9
v -0.9 0.4 0.9
v -0.9 0.7 0.9
v -0.9 0.8 0.9
v -0.9 4.1 0.9
v -0.9 4.3 0.9
v -0.6 0.7 0.9
v -0.6 0.8 0.9
v -0.2 4 0.9
v -0.2 4.1 0.9
v 0.7 0.7 0.9
v 0.7 0.8 0.9
v 0.7 4 0.9
v 0.7 4.1 0.9
v 0.9 0.2 0.9
v 0.9 0.3 0.9
v 0.9 0.4 0.9
v 0.9 0.7 0.9
v 0.9 0.8 0.9
v 0.9 4.1 0.9
v 0.9 4.3 0.9
v 1 0.3 0.9
v 1 0.4 0.9
v 1 0.7 0.9
v 1 4 0.9
v 1 4.1 0.9
v -1 2.1 0.8
v -1 2.3 0.8
v -1 4.1 0.8
v -1 4.2 0.8
v -0.9 4.1 0.8
v -0.9 4.2 0.8
v -0.8 2.1 0.8
v -0.8 2.3 0.8
v -0.7 1 0.8
v -0.7 2 0.8
v -0.4 1 0.8
v -0.4 2 0.8
v -0.3 1 0.8
v -0.3 1.6 0.8
v -0.3 1.8 0.8
v -0.3 2 0.8
v 0 1.4 0.8
v 0 1.6 0.8
v 0.1 1.4 0.8
v 0.1 1.8 0.8
v 0.2 1 0.8
v 0.2 1.4 0.8
v 0.3 1 0.8
v 0.3 1.2 0.8
v 0.5 1.2 0.8
v 0.5 1.4 0.8
v 0.5 1.9 0.8
v 0.5 2 0.8
v 0.7 1 0.8
v 0.7 1.9 0.8
v 0.9 2.1 0.8
v 0.9 2.5 0.8
v 0.9 4.1 0.8
v 0.9 4.3 0.8
v 1 2.1 0.8
v 1 2.5 0.8
v 1 4.1 0.8
v 1 4.3 0.8
v -0.6 0.9 0.7
v -0.6 1 0.7
v -0.5 2 0.7
v -0.5 2.1 0.7
v -0.4 1 0.7
v -0.4 2 0.7
v -0.3 1 0.7
v -0.3 1.6 0.7
v -0.3 1.8 0.7
v -0.3 2 0.7
v 0 1.4 0.7
v 0 1.6 0.7
v 0.1 1.4 0.7
v 0.1 1.8 0.7
v 0.1 2 0.7
v 0.1 2.1 0.7
v 0.2 1 0.7
v 0.2 1.4 0.7
v 0.3 1 0.7
v 0.3 1.2 0.7
v 0.5 1.2 0.7
v 0.5 1.4 0.7
v 0.5 1.9 0.7
v 0.5 2 0.7
v 0.6 0.9 0.7
v 0.6 1 0.7
v 0.7 1 0.7
v 0.7 1.9 0.7
v 0.8 1 0.7
v 0.8 2 0.7
v -0.6 2 0.6
v -0.6 2.1 0.6
v -0.5 0.8 0.6
v -0.5 0.9 0.6
v -0.5 2 0.6
v -0.5 2.1 0.6
v -0.5 4.3 0.6
v -0.5 4.4 0.6
v -0.5 4.7 0.6
v 0.1 2 0.6
v 0.1 2.1 0.6
v 0.3 0.8 0.6
v 0.4 0.8 0.6
v 0.4 2.1 0.6
v 0.5 0.8 0.6
v 0.5 0.9 0.6
v 0.6 0.9 0.6
v 0.6 1 0.6
v 0.6 2 0.6
v 0.6 2.1 0.6
v 0.6 4.3 0.6
v 0.6 4.4 0.6
v 0.6 4.7 0.6
v 0.7 0.9 0.6
v 0.7 1 0.6
v -0.4 4.7 0.5
v -0.4 4.9 0.5
v 0.2 4.7 0.5
v 0.2 4.9 0.5
v 0.3 4.7 0.5
v 0.3 4.9 0.5
v 0.5 0.8 0.5
v 0.5 0.9 0.5
v 0.5 4.7 0.5
v 0.5 4.9 0.5
v 0.6 0.8 0.5
v 0.6 0.9 0.5
v -0.4 4.9 0.4
v -0.4 5 0.4
v -0.4 5.1 0.4
v -0.1 5 0.4
v -0.1 5.1 0.4
v 0 5 0.4
v 0 5.1 0.4
v 0.2 4.7 0.4
v 0.2 4.9 0.4
v 0.3 4.7 0.4
v 0.3 4.9 0.4
v 0.5 4.9 0.4
v 0.5 5 0.4
v 0.5 5.1 0.4
v -0.7 0.9 0.3
v -0.7 1 0.3
v -0.6 0.9 0.3
v -0.6 1 0.3
v -0.3 5.1 0.3
v -0.3 5.2 0.3
v -0.1 5.1 0.3
v -0.1 5.2 0.3
v 0 5.1 0.3
v 0 5.2 0.3
v 0.4 5.1 0.3
v 0.4 5.2 0.3
v 0.6 2 0.2
v 0.6 2.1 0.2
v 0.7 2 0.2
v 0.7 2.1 0.2
v -1 0.7 -0.1
v -1 0.8 -0.1
v -0.9 0.7 -0.1
v -0.9 0.8 -0.1
v -0.7 0.9 -0.1
v -0.7 1.7 -0.1
v -0.6 0.9 -0.1
v -0.6 1.6 -0.1
v -0.6 1.7 -0.1
v -0.5 0.8 -0.1
v -0.5 0.9 -0.1
v -0.4 0.8 -0.1
v -0.4 0.9 -0.1
v 0.5 0.8 -0.1
v 0.5 0.9 -0.1
v 0.6 0.2 -0.1
v 0.6 0.3 -0.1
v 0.6 0.8 -0.1
v 0.6 0.9 -0.1
v 0.7 0.2 -0.1
v 0.7 0.3 -0.1
v 0.7 0.9 -0.1
v 0.7 1.7 -0.1
v 0.8 0.9 -0.1
v 0.8 1.7 -0.1
v 0.9 0.3 -0.1
v 0.9 0.4 -0.1
v 0.9 0.7 -0.1
v 1 0.3 -0.1
v 1 0.4 -0.1
v 1 0.7 -0.1
v 0.7 1.9 -0.5
v 0.7 2 -0.5
v 0.8 1.9 -0.5
v 0.8 2 -0.5
v 0.7 0.2 0.1
v 0.7 0.3 0.1
v 0.9 0.2 0.1
v 0.9 0.3 0.1
v -1 4.1 0
v -1 4.2 0
v -0.9 4.2 0
v -0.9 4.3 0
v -0.8 4.1 0
v -0.8 4.3 0
v -0.7 0.9 0
v -0.7 1.8 0
v -0.6 0.9 0
v -0.6 1.6 0
v -0.6 1.8 0
v -0.5 0.8 0
v -0.5 0.9 0
v -0.4 0.8 0
v -0.4 0.9 0
v 0.5 0.8 0
v 0.5 0.9 0
v 0.6 0.2 0
v 0.6 0.3 0
v 0.6 0.8 0
v 0.6 0.9 0
v 0.7 0.2 0
v 0.7 0.3 0
v 0.7 1 0
v 0.7 1.7 0
v 0.8 1 0
v 0.8 1.7 0
v 0.8 4.1 0
v 0.8 4.3 0
v 0.9 0.3 0
v 0.9 0.4 0
v 0.9 0.7 0
v 1 0.3 0
v 1 0.4 0
v 1 0.7 0
v 1 4.1 0
v 1 4.3 0
v -0.4 4.7 -0.4
v -0.4 4.9 -0.4
v -0.4 5 -0.4
v -0.4 5.1 -0.4
v -0.3 4.7 -0.4
v -0.3 4.9 -0.4
v -0.3 5 -0.4
v -0.3 5.1 -0.4
v -0.3 5.2 -0.4
v 0.1 4.9 -0.4
v 0.1 5.1 -0.4
v 0.2 4.7 -0.4
v 0.2 4.9 -0.4
v 0.3 4.7 -0.4
v 0.3 5.1 -0.4
v 0.4 5.1 -0.4
v 0.4 5.2 -0.4
v 0.7 1.7 -0.4
v 0.7 2 -0.4
v 0.8 1.7 -0.4
v 0.8 2 -0.4
v -0.7 1.8 -0.5
v -0.7 2 -0.5
v -0.6 1.8 -0.5
v -0.6 2 -0.5
v -0.6 2.1 -0.5
v -0.5 2 -0.5
v -0.5 2.1 -0.5
v -0.5 4.6 -0.5
v -0.5 4.7 -0.5
v -0.4 4.6 -0.5
v -0.4 4.7 -0.5
v -0.3 4.7 -0.5
v -0.3 5.1 -0.5
v 0.1 4.9 -0.5
v 0.1 5.1 -0.5
v 0.2 4.7 -0.5
v 0.2 4.9 -0.5
v 0.3 4.7 -0.5
v 0.3 5.1 -0.5
v 0.4 4.9 -0.5
v 0.4 5 -0.5
v 0.5 4.7 -0.5
v 0.5 4.9 -0.5
v 0.5 5 -0.5
v 0.5 5.1 -0.5
v -0.5 0.8 -0.6
v -0.5 0.9 -0.6
v -0.5 4.3 -0.6
v -0.5 4.4 -0.6
v -0.5 4.6 -0.6
v -0.4 4.6 -0.6
v -0.4 4.7 -0.6
v 0.6 0.8 -0.6
v 0.6 0.9 -0.6
v 0.6 2 -0.6
v 0.6 2.1 -0.6
v 0.6 4.3 -0.6
v 0.6 4.4 -0.6
v 0.6 4.7 -0.6
v 0.7 2 -0.6
v 0.7 2.1 -0.6
v -0.7 1.1 -0.7
v -0.7 1.7 -0.7
v -0.6 1.1 -0.7
v -0.6 1.7 -0.7
v -0.6 1.8 -0.7
v -0.5 2 -0.7
v -0.5 2.1 -0.7
v 0.6 2 -0.7
v 0.6 2.1 -0.7
v 0.7 1.6 -0.7
v 0.7 1.7 -0.7
v 0.7 1.8 -0.7
v 0.8 1.6 -0.7
v 0.8 1.7 -0.7
v -1 2.1 -0.8
v -1 3.1 -0.8
v -0.8 2.1 -0.8
v -0.8 3.1 -0.8
v -0.8 4.1 -0.8
v -0.8 4.3 -0.8
v -0.7 0.9 -0.8
v -0.7 1.1 -0.8
v -0.6 1.1 -0.8
v -0.6 1.7 -0.8
v -0.6 1.8 -0.8
v -0.6 2 -0.8
v 0.7 1.6 -0.8
v 0.7 1.7 -0.8
v 0.7 1.8 -0.8
v 0.7 1.9 -0.8
v 0.8 0.9 -0.8
v 0.8 1.6 -0.8
v 0.8 1.9 -0.8
v 0.8 2 -0.8
v 0.8 4.1 -0.8
v 0.8 4.3 -0.8
v -1 0.7 -0.9
v -1 0.8 -0.9
v -1 3.1 -0.9
v -1 4.1 -0.9
v -0.9 0.2 -0.9
v -0.9 0.3 -0.9
v -0.9 0.7 -0.9
v -0.9 0.8 -0.9
v -0.8 2.1 -0.9
v -0.8 3.1 -0.9
v 0.7 0.2 -0.9
v 0.7 0.3 -0.9
v 1 2.1 -0.9
v 1 4.1 -0.9
v -1 0.3 -1
v -1 0.4 -1
v -1 0.7 -1
v -0.9 0.7 -1
v -0.9 0.8 -1
v 0.9 0.7 -1
v 0.9 0.8 -1
v 1 0.3 -1
v 1 0.4 -1
v 1 0.7 -1
v -0.9 0.2 0.9
v 0.9 0.2 0.9
v 0.7 0.2 0.1
v 0.9 0.2 0.1
v 0.6 0.2 0
v 0.7 0.2 0
v 0.6 0.2 -0.1
v 0.7 0.2 -0.1
v -0.9 0.2 -0.9
v 0.7 0.2 -0.9
v -0.9 0.3 1
v 0.9 0.3 1
v -1 0.3 0.9
v -0.9 0.3 0.9
v 0.9 0.3 0.9
v 1 0.3 0.9
v 0.7 0.3 0.1
v 0.9 0.3 0.1
v 0.6 0.3 0
v 0.7 0.3 0
v 0.9 0.3 0
v 1 0.3 0
v 0.6 0.3 -0.1
v 0.7 0.3 -0.1
v 0.9 0.3 -0.1
v 1 0.3 -0.1
v -0.9 0.3 -0.9
v 0.7 0.3 -0.9
v -1 0.3 -1
v 1 0.3 -1
v -0.6 0.9 0.7
v 0.6 0.9 0.7
v -0.5 0.9 0.6
v 0.5 0.9 0.6
v 0.6 0.9 0.6
v 0.7 0.9 0.6
v 0.5 0.9 0.5
v 0.6 0.9 0.5
v -0.7 0.9 0.3
v -0.6 0.9 0.3
v -0.7 0.9 0
v -0.6 0.9 0
v -0.5 0.9 0
v -0.4 0.9 0
v 0.5 0.9 0
v 0.6 0.9 0
v 0.7 0.9 0
v -0.7 0.9 -0.1
v -0.6 0.9 -0.1
v -0.5 0.9 -0.1
v -0.4 0.9 -0.1
v 0.5 0.9 -0.1
v 0.6 0.9 -0.1
v 0.7 0.9 -0.1
v 0.8 0.9 -0.1
v -0.5 0.9 -0.6
v 0.6 0.9 -0.6
v -0.6 0.9 -0.7
v 0.7 0.9 -0.7
v -0.7 0.9 -0.8
v 0.8 0.9 -0.8
v -0.7 1 0.8
v -0.4 1 0.8
v -0.3 1 0.8
v 0.2 1 0.8
v 0.3 1 0.8
v 0.7 1 0.8
v -0.6 1 0.7
v -0.4 1 0.7
v -0.3 1 0.7
v 0.2 1 0.7
v 0.3 1 0.7
v 0.6 1 0.7
v 0.7 1 0.7
v 0.8 1 0.7
v 0.6 1 0.6
v 0.7 1 0.6
v -0.7 1 0.3
v -0.6 1 0.3
v 0.7 1 0
v 0.8 1 0
v 0.2 1.4 0.8
v 0.5 1.4 0.8
v 0.2 1.4 0.7
v 0.5 1.4 0.7
v 0.7 1.7 0
v 0.8 1.7 0
v 0.7 1.7 -0.1
v 0.8 1.7 -0.1
v -0.3 1.8 0.8
v 0.1 1.8 0.8
v -0.3 1.8 0.7
v 0.1 1.8 0.7
v -0.7 1.8 0
v -0.6 1.8 0
v -0.7 1.8 -0.5
v -0.6 1.8 -0.5
v -0.6 1.8 -0.7
v 0.7 1.8 -0.7
v -0.6 1.8 -0.8
v 0.7 1.8 -0.8
v 0.7 1.9 -0.5
v 0.8 1.9 -0.5
v 0.7 1.9 -0.8
v 0.8 1.9 -0.8
v -0.8 2.1 1
v 0.9 2.1 1
v -1 2.1 0.8
v -0.8 2.1 0.8
v 0.1 2.1 0.8
v 0.4 2.1 0.8
v 0.8 2.1 0.8
v 0.9 2.1 0.8
v 1 2.1 0.8
v -0.5 2.1 0.7
v 0.1 2.1 0.7
v -0.6 2.1 0.6
v -0.5 2.1 0.6
v 0.1 2.1 0.6
v 0.4 2.1 0.6
v 0.6 2.1 0.6
v 0.6 2.1 0.2
v 0.7 2.1 0.2
v 0.7 2.1 0
v 0.8 2.1 0
v 0.7 2.1 -0.3
v 0.8 2.1 -0.3
v -0.8 2.1 -0.5
v -0.6 2.1 -0.5
v -0.5 2.1 -0.5
v 0.7 2.1 -0.5
v 0.8 2.1 -0.5
v 0.6 2.1 -0.6
v 0.7 2.1 -0.6
v -0.5 2.1 -0.7
v 0.6 2.1 -0.7
v -1 2.1 -0.8
v -0.8 2.1 -0.8
v -0.8 2.1 -0.9
v 1 2.1 -0.9
v -1 2.3 1
v -0.8 2.3 1
v -1 2.3 0.8
v -0.8 2.3 0.8
v 0.9 2.5 1
v 1 2.5 1
v 0.9 2.5 0.8
v 1 2.5 0.8
v -1 3.1 -0.8
v -0.8 3.1 -0.8
v -1 3.1 -0.9
v -0.8 3.1 -0.9
v -0.9 0.7 1
v -0.6 0.7 1
v 0.7 0.7 1
v 0.9 0.7 1
v -1 0.7 0.9
v -0.9 0.7 0.9
v -0.6 0.7 0.9
v 0.7 0.7 0.9
v 0.9 0.7 0.9
v 1 0.7 0.9
v 0.9 0.7 0.5
v 1 0.7 0.5
v 0.9 0.7 0.4
v 1 0.7 0.4
v -1 0.7 0
v -0.9 0.7 0
v 0.9 0.7 0
v 1 0.7 0
v -1 0.7 -0.1
v -0.9 0.7 -0.1
v 0.9 0.7 -0.1
v 1 0.7 -0.1
v -1 0.7 -0.9
v -0.9 0.7 -0.9
v -1 0.7 -1
v -0.9 0.7 -1
v 0.9 0.7 -1
v 1 0.7 -1
v -0.6 0.8 1
v 0.3 0.8 1
v 0.4 0.8 1
v 0.7 0.8 1
v -0.9 0.8 0.9
v -0.6 0.8 0.9
v 0.7 0.8 0.9
v 0.9 0.8 0.9
v -0.5 0.8 0.6
v 0.3 0.8 0.6
v 0.4 0.8 0.6
v 0.5 0.8 0.6
v 0.5 0.8 0.5
v 0.6 0.8 0.5
v 0.9 0.8 0.5
v 0.6 0.8 0.4
v 0.9 0.8 0.4
v -0.9 0.8 0
v -0.5 0.8 0
v -0.4 0.8 0
v 0.5 0.8 0
v 0.6 0.8 0
v -1 0.8 -0.1
v -0.9 0.8 -0.1
v -0.5 0.8 -0.1
v -0.4 0.8 -0.1
v 0.5 0.8 -0.1
v 0.6 0.8 -0.1
v -0.5 0.8 -0.6
v 0.6 0.8 -0.6
v -1 0.8 -0.9
v -0.9 0.8 -0.9
v -0.9 0.8 -1
v 0.9 0.8 -1
v -0.7 1.1 -0.7
v -0.6 1.1 -0.7
v -0.7 1.1 -0.8
v -0.6 1.1 -0.8
v 0.3 1.2 0.8
v 0.5 1.2 0.8
v 0.3 1.2 0.7
v 0.5 1.2 0.7
v 0 1.4 0.8
v 0.1 1.4 0.8
v 0 1.4 0.7
v 0.1 1.4 0.7
v -0.3 1.6 0.8
v 0 1.6 0.8
v -0.3 1.6 0.7
v 0 1.6 0.7
v 0.7 1.6 -0.7
v 0.8 1.6 -0.7
v 0.7 1.6 -0.8
v 0.8 1.6 -0.8
v -0.7 1.7 -0.1
v -0.6 1.7 -0.1
v 0.7 1.7 -0.4
v 0.8 1.7 -0.4
v -0.7 1.7 -0.7
v -0.6 1.7 -0.7
v 0.7 1.7 -0.7
v 0.8 1.7 -0.7
v -0.6 1.7 -0.8
v 0.7 1.7 -0.8
v 0.5 1.9 0.8
v 0.7 1.9 0.8
v 0.5 1.9 0.7
v 0.7 1.9 0.7
v -0.7 2 0.8
v -0.4 2 0.8
v -0.3 2 0.8
v 0.5 2 0.8
v -0.5 2 0.7
v -0.4 2 0.7
v -0.3 2 0.7
v 0.1 2 0.7
v 0.5 2 0.7
v 0.8 2 0.7
v -0.6 2 0.6
v -0.5 2 0.6
v 0.1 2 0.6
v 0.6 2 0.6
v 0.6 2 0.2
v 0.7 2 0.2
v 0.7 2 -0.4
v 0.8 2 -0.4
v -0.7 2 -0.5
v -0.6 2 -0.5
v -0.5 2 -0.5
v 0.7 2 -0.5
v 0.8 2 -0.5
v 0.6 2 -0.6
v 0.7 2 -0.6
v -0.5 2 -0.7
v 0.6 2 -0.7
v -0.6 2 -0.8
v 0.8 2 -0.8
v -1 4 1
v -0.2 4 1
v 0.7 4 1
v 1 4 1
v -1 4 0.9
v -0.2 4 0.9
v 0.7 4 0.9
v 1 4 0.9
v -0.2 4.1 1
v 0.7 4.1 1
v -1 4.1 0.9
v -0.9 4.1 0.9
v -0.2 4.1 0.9
v 0.7 4.1 0.9
v 0.9 4.1 0.9
v 1 4.1 0.9
v -1 4.1 0.8
v -0.9 4.1 0.8
v 0.9 4.1 0.8
v 1 4.1 0.8
v -1 4.1 0
v -0.8 4.1 0
v 0.8 4.1 0
v 1 4.1 0
v -0.8 4.1 -0.8
v 0.8 4.1 -0.8
v -1 4.1 -0.9
v 1 4.1 -0.9
v -1 4.2 0.8
v -0.9 4.2 0.8
v -1 4.2 0
v -0.9 4.2 0
v -0.9 4.3 0.9
v 0.9 4.3 0.9
v 0.9 4.3 0.8
v 1 4.3 0.8
v -0.5 4.3 0.6
v 0.6 4.3 0.6
v -0.9 4.3 0
v -0.8 4.3 0
v 0.8 4.3 0
v 1 4.3 0
v -0.5 4.3 -0.6
v 0.6 4.3 -0.6
v -0.8 4.3 -0.8
v 0.8 4.3 -0.8
v -0.5 4.6 -0.5
v -0.4 4.6 -0.5
v -0.5 4.6 -0.6
v -0.4 4.6 -0.6
v -0.5 4.7 0.6
v 0.6 4.7 0.6
v -0.4 4.7 0.5
v 0.2 4.7 0.5
v 0.3 4.7 0.5
v 0.5 4.7 0.5
v 0.2 4.7 0.4
v 0.3 4.7 0.4
v -0.4 4.7 -0.4
v -0.3 4.7 -0.4
v 0.2 4.7 -0.4
v 0.3 4.7 -0.4
v -0.5 4.7 -0.5
v -0.4 4.7 -0.5
v -0.3 4.7 -0.5
v 0.2 4.7 -0.5
v 0.3 4.7 -0.5
v 0.5 4.7 -0.5
v -0.4 4.7 -0.6
v 0.6 4.7 -0.6
v -0.4 4.9 0.5
v 0.2 4.9 0.5
v 0.3 4.9 0.5
v 0.5 4.9 0.5
v -0.4 4.9 0.4
v 0.2 4.9 0.4
v 0.3 4.9 0.4
v 0.5 4.9 0.4
v 0.1 4.9 -0.4
v 0.2 4.9 -0.4
v 0.1 4.9 -0.5
v 0.2 4.9 -0.5
v -0.4 5.1 0.4
v -0.1 5.1 0.4
v 0 5.1 0.4
v 0.5 5.1 0.4
v -0.3 5.1 0.3
v -0.1 5.1 0.3
v 0 5.1 0.3
v 0.4 5.1 0.3
v -0.4 5.1 -0.4
v -0.3 5.1 -0.4
v 0.1 5.1 -0.4
v 0.3 5.1 -0.4
v 0.4 5.1 -0.4
v -0.3 5.1 -0.5
v 0.1 5.1 -0.5
v 0.3 5.1 -0.5
v 0.5 5.1 -0.5
v -0.3 5.2 0.3
v -0.1 5.2 0.3
v 0 5.2 0.3
v 0.4 5.2 0.3
v -0.1 5.2 0.2
v 0 5.2 0.2
v -0.3 5.2 -0.4
v 0.4 5.2 -0.4

# faces
f 3/2/1 2/2/1 1/2/1
f 4/2/1 2/2/1 3/2/1
f 5/2/1 2/2/1 4/2/1
f 6/2/1 2/2/1 5/2/1
f 7/1/1 4/1/1 3/1/1
f 8/2/1 5/2/1 4/2/1
f 8/1/1 4/1/1 7/1/1
f 9/1/1 6/1/1 5/1/1
f 9/2/1 5/2/1 8/2/1
f 10/1/1 6/1/1 9/1/1
f 11/1/1 6/1/1 10/1/1
f 12/1/1 10/1/1 9/1/1
f 13/1/1 10/1/1 12/1/1
f 17/1/1 15/1/1 14/1/1
f 18/1/1 15/1/1 17/1/1
f 18/1/1 17/1/1 16/1/1
f 20/1/1 18/1/1 16/1/1
f 20/1/1 19/1/1 18/1/1
f 21/1/1 19/1/1 20/1/1
f 22/5/1 21/5/1 20/5/1
f 23/1/1 19/1/1 21/1/1
f 23/5/1 21/5/1 22/5/1
f 24/8/1 23/8/1 22/8/1
f 25/1/1 19/1/1 23/1/1
f 25/8/1 23/8/1 24/8/1
f 26/5/1 25/5/1 24/5/1
f 27/1/1 19/1/1 25/1/1
f 27/5/1 25/5/1 26/5/1
f 28/1/1 19/1/1 27/1/1
f 29/1/1 19/1/1 28/1/1
f 30/1/1 19/1/1 29/1/1
f 31/1/1 19/1/1 30/1/1
f 32/1/1 30/1/1 29/1/1
f 33/1/1 30/1/1 32/1/1
f 37/2/1 35/2/1 34/2/1
f 38/2/1 35/2/1 37/2/1
f 39/2/1 37/2/1 36/2/1
f 40/2/1 37/2/1 39/2/1
f 41/1/1 40/1/1 39/1/1
f 42/1/1 40/1/1 41/1/1
f 47/1/1 43/1/1 42/1/1
f 48/2/1 44/2/1 43/2/1
f 48/1/1 43/1/1 47/1/1
f 49/2/1 44/2/1 48/2/1
f 50/1/1 46/1/1 45/1/1
f 51/1/1 46/1/1 50/1/1
f 54/1/1 53/1/1 52/1/1
f 56/1/1 54/1/1 52/1/1
f 56/1/1 55/1/1 54/1/1
f 57/1/1 55/1/1 56/1/1
f 62/1/1 59/1/1 58/1/1
f 63/1/1 59/1/1 62/1/1
f 64/1/1 61/1/1 60/1/1
f 65/1/1 61/1/1 64/1/1
f 68/1/1 67/1/1 66/1/1
f 69/1/1 67/1/1 68/1/1
f 75/4/1 71/4/1 70/4/1
f 76/4/1 73/4/1 72/4/1
f 77/4/1 73/4/1 76/4/1
f 78/4/1 76/4/1 72/4/1
f 79/4/1 76/4/1 78/4/1
f 80/4/1 75/4/1 74/4/1
f 80/4/1 71/4/1 75/4/1
f 82/4/1 80/4/1 74/4/1
f 82/4/1 81/4/1 80/4/1
f 83/4/1 81/4/1 82/4/1
f 86/1/1 85/1/1 84/1/1
f 87/1/1 85/1/1 86/1/1
f 92/2/1 89/2/1 88/2/1
f 93/2/1 89/2/1 92/2/1
f 96/2/1 91/2/1 90/2/1
f 97/2/1 91/2/1 96/2/1
f 98/4/1 97/4/1 96/4/1
f 99/4/1 95/4/1 94/4/1
f 100/4/1 95/4/1 99/4/1
f 101/4/1 98/4/1 96/4/1
f 101/4/1 99/4/1 98/4/1
f 102/4/1 99/4/1 101/4/1
f 103/4/1 99/4/1 102/4/1
f 106/4/1 104/4/1 103/4/1
f 106/4/1 103/4/1 102/4/1
f 107/4/1 104/4/1 106/4/1
f 108/2/1 106/2/1 105/2/1
f 109/2/1 106/2/1 108/2/1
f 114/2/1 111/2/1 110/2/1
f 115/2/1 111/2/1 114/2/1
f 116/2/1 113/2/1 112/2/1
f 117/2/1 113/2/1 116/2/1
f 122/2/1 119/2/1 118/2/1
f 123/2/1 119/2/1 122/2/1
f 124/2/1 121/2/1 120/2/1
f 125/2/1 121/2/1 124/2/1
f 128/2/1 127/2/1 126/2/1
f 129/2/1 127/2/1 128/2/1
f 130/4/1 129/4/1 128/4/1
f 131/4/1 129/4/1 130/4/1
f 132/4/1 130/4/1 128/4/1
f 133/4/1 130/4/1 132/4/1
f 136/2/1 135/2/1 134/2/1
f 137/2/1 135/2/1 136/2/1
f 142/4/1 139/4/1 138/4/1
f 143/4/1 139/4/1 142/4/1
f 144/4/1 141/4/1 140/4/1
f 145/4/1 141/4/1 144/4/1
f 146/4/1 141/4/1 145/4/1
f 147/2/1 146/2/1 145/2/1
f 148/2/1 146/2/1 147/2/1
f 149/4/1 148/4/1 147/4/1
f 150/4/1 148/4/1 149/4/1
f 153/4/1 152/4/1 151/4/1
f 154/4/1 152/4/1 153/4/1
f 157/4/1 156/4/1 155/4/1
f 158/4/1 156/4/1 157/4/1
f 161/4/1 160/4/1 159/4/1
f 162/4/1 160/4/1 161/4/1
f 164/4/1 160/4/1 162/4/1
f 165/4/1 160/4/1 164/4/1
f 166/4/1 164/4/1 163/4/1
f 167/4/1 164/4/1 166/4/1
f 170/5/1 169/5/1 168/5/1
f 171/5/1 169/5/1 170/5/1
f 174/4/1 173/4/1 172/4/1
f 175/4/1 173/4/1 174/4/1
f 178/4/1 177/4/1 176/4/1
f 179/4/1 177/4/1 178/4/1
f 184/4/1 181/4/1 180/4/1
f 185/4/1 181/4/1 184/4/1
f 186/4/1 183/4/1 182/4/1
f 187/4/1 183/4/1 186/4/1
f 190/4/1 189/4/1 188/4/1
f 191/4/1 189/4/1 190/4/1
f 192/4/2 193/4/2 194/4/2
f 194/4/2 193/4/2 195/4/2
f 196/4/2 197/4/2 198/4/2
f 198/4/2 197/4/2 199/4/2
f 200/2/2 201/2/2 202/2/2
f 202/2/2 201/2/2 203/2/2
f 204/4/2 205/4/2 206/4/2
f 206/4/2 205/4/2 207/4/2
f 208/4/2 209/4/2 210/4/2
f 210/4/2 209/4/2 211/4/2
f 212/4/2 213/4/2 216/4/2
f 216/4/2 213/4/2 217/4/2
f 214/4/2 215/4/2 218/4/2
f 218/4/2 215/4/2 219/4/2
f 220/4/2 221/4/2 222/4/2
f 222/4/2 221/4/2 223/4/2
f 224/2/2 225/2/2 228/2/2
f 228/2/2 225/2/2 229/2/2
f 226/2/2 227/2/2 230/2/2
f 230/2/2 227/2/2 231/2/2
f 232/4/2 233/4/2 234/4/2
f 234/4/2 233/4/2 235/4/2
f 236/4/2 237/4/2 238/4/2
f 238/4/2 237/4/2 239/4/2
f 239/4/2 237/4/2 240/4/2
f 239/2/2 240/2/2 241/2/2
f 241/2/2 240/2/2 242/2/2
f 241/4/2 242/4/2 243/4/2
f 243/4/2 242/4/2 244/4/2
f 245/2/2 246/2/2 247/2/2
f 247/2/2 246/2/2 248/2/2
f 250/2/2 251/2/2 256/2/2
f 249/2/2 250/2/2 256/2/2
f 256/2/2 251/2/2 257/2/2
f 252/2/2 253/2/2 258/2/2
f 258/2/2 253/2/2 259/2/2
f 254/2/2 255/2/2 260/2/2
f 260/2/2 255/2/2 261/2/2
f 262/2/2 263/2/2 266/2/2
f 266/2/2 263/2/2 267/2/2
f 264/2/2 265/2/2 268/2/2
f 268/2/2 265/2/2 269/2/2
f 270/2/2 271/2/2 272/2/2
f 272/2/2 271/2/2 273/2/2
f 272/4/2 273/4/2 274/4/2
f 274/4/2 273/4/2 275/4/2
f 276/2/2 277/2/2 280/2/2
f 280/2/2 277/2/2 281/2/2
f 278/2/2 279/2/2 282/2/2
f 282/2/2 279/2/2 283/2/2
f 284/1/2 285/1/2 286/1/2
f 286/1/2 285/1/2 287/1/2
f 288/2/2 289/2/2 293/2/2
f 289/4/2 290/4/2 294/4/2
f 293/2/2 289/2/2 294/2/2
f 294/4/2 290/4/2 297/4/2
f 297/4/2 290/4/2 298/4/2
f 295/4/2 296/4/2 300/4/2
f 300/4/2 296/4/2 301/4/2
f 299/4/2 300/4/2 302/4/2
f 291/4/2 292/4/2 304/4/2
f 304/4/2 292/4/2 305/4/2
f 302/4/2 303/4/2 306/4/2
f 299/4/2 302/4/2 306/4/2
f 306/4/2 303/4/2 307/4/2
f 299/4/2 306/4/2 309/4/2
f 309/4/2 306/4/2 310/4/2
f 308/2/2 309/2/2 312/2/2
f 310/2/2 311/2/2 312/2/2
f 309/2/2 310/2/2 312/2/2
f 312/2/2 311/2/2 313/2/2
f 313/2/2 311/2/2 314/2/2
f 314/2/2 311/2/2 315/2/2
f 315/2/2 311/2/2 316/2/2
f 317/5/2 318/5/2 319/5/2
f 319/5/2 318/5/2 320/5/2
f 321/4/2 322/4/2 325/4/2
f 325/4/2 322/4/2 326/4/2
f 323/4/2 324/4/2 327/4/2
f 321/4/2 325/4/2 328/4/2
f 328/4/2 325/4/2 329/4/2
f 329/4/2 325/4/2 330/4/2
f 323/4/2 327/4/2 333/4/2
f 327/4/2 328/4/2 333/4/2
f 328/4/2 329/4/2 333/4/2
f 333/4/2 329/4/2 334/4/2
f 331/4/2 332/4/2 335/4/2
f 335/4/2 332/4/2 336/4/2
f 337/1/2 338/1/2 339/1/2
f 339/1/2 338/1/2 340/1/2
f 341/2/2 342/2/2 344/2/2
f 344/2/2 342/2/2 345/2/2
f 343/2/2 344/2/2 348/2/2
f 348/2/2 344/2/2 349/2/2
f 346/2/2 347/2/2 350/2/2
f 350/2/2 347/2/2 351/2/2
f 348/1/2 349/1/2 352/1/2
f 352/1/2 349/1/2 353/1/2
f 350/1/2 351/1/2 356/1/2
f 356/1/2 351/1/2 357/1/2
f 353/1/2 354/1/2 359/1/2
f 354/2/2 355/2/2 360/2/2
f 359/1/2 354/1/2 360/1/2
f 356/1/2 357/1/2 361/1/2
f 360/2/2 355/2/2 361/2/2
f 357/1/2 358/1/2 361/1/2
f 355/1/2 356/1/2 361/1/2
f 361/1/2 358/1/2 362/1/2
f 363/1/2 364/1/2 365/1/2
f 365/1/2 364/1/2 366/1/2
f 367/1/2 368/1/2 369/1/2
f 369/1/2 368/1/2 370/1/2
f 371/2/2 372/2/2 375/2/2
f 375/2/2 372/2/2 376/2/2
f 376/2/2 372/2/2 377/2/2
f 377/2/2 372/2/2 378/2/2
f 373/2/2 374/2/2 379/2/2
f 379/2/2 374/2/2 380/2/2
f 375/1/2 376/1/2 381/1/2
f 376/2/2 377/2/2 382/2/2
f 381/1/2 376/1/2 382/1/2
f 377/1/2 378/1/2 383/1/2
f 382/2/2 377/2/2 383/2/2
f 383/1/2 378/1/2 384/1/2
f 379/1/2 380/1/2 385/1/2
f 385/1/2 380/1/2 386/1/2
f 387/1/2 388/1/2 390/1/2
f 389/1/2 390/1/2 391/1/2
f 391/1/2 390/1/2 392/1/2
f 391/5/2 392/5/2 393/5/2
f 392/1/2 390/1/2 394/1/2
f 393/5/2 392/5/2 394/5/2
f 393/8/2 394/8/2 395/8/2
f 394/1/2 390/1/2 396/1/2
f 395/8/2 394/8/2 396/8/2
f 395/5/2 396/5/2 397/5/2
f 396/1/2 390/1/2 398/1/2
f 397/5/2 396/5/2 398/5/2
f 398/1/2 390/1/2 399/1/2
f 390/1/2 388/1/2 400/1/2
f 399/1/2 390/1/2 400/1/2
f 400/1/2 388/1/2 401/1/2
f 401/1/2 388/1/2 402/1/2
f 400/1/2 401/1/2 403/1/2
f 403/1/2 401/1/2 404/1/2
f 413/1/3 406/1/3 405/1/3
f 414/1/3 406/1/3 413/1/3
f 416/1/3 413/1/3 405/1/3
f 417/1/3 413/1/3 416/1/3
f 418/5/3 414/5/3 413/5/3
f 418/1/3 413/1/3 417/1/3
f 419/1/3 406/1/3 414/1/3
f 419/5/3 414/5/3 418/5/3
f 420/1/3 406/1/3 419/1/3
f 421/5/3 418/5/3 417/5/3
f 421/5/3 419/5/3 418/5/3
f 421/5/3 420/5/3 419/5/3
f 422/5/3 420/5/3 421/5/3
f 423/1/3 412/1/3 411/1/3
f 425/5/3 420/5/3 422/5/3
f 426/1/3 406/1/3 420/1/3
f 426/5/3 420/5/3 425/5/3
f 427/1/3 417/1/3 416/1/3
f 427/1/3 416/1/3 415/1/3
f 427/5/3 421/5/3 417/5/3
f 428/5/3 421/5/3 427/5/3
f 429/1/3 422/1/3 421/1/3
f 429/5/3 421/5/3 428/5/3
f 430/1/3 422/1/3 429/1/3
f 431/5/3 425/5/3 422/5/3
f 431/1/3 422/1/3 430/1/3
f 432/1/3 426/1/3 425/1/3
f 432/5/3 425/5/3 431/5/3
f 433/1/3 406/1/3 426/1/3
f 433/1/3 426/1/3 432/1/3
f 434/5/3 407/5/3 406/5/3
f 434/1/3 406/1/3 433/1/3
f 435/5/3 407/5/3 434/5/3
f 436/5/3 407/5/3 435/5/3
f 437/8/3 408/8/3 407/8/3
f 437/5/3 407/5/3 436/5/3
f 438/8/3 408/8/3 437/8/3
f 439/6/3 436/6/3 435/6/3
f 439/5/3 437/5/3 436/5/3
f 439/5/3 438/5/3 437/5/3
f 440/5/3 438/5/3 439/5/3
f 441/5/3 430/5/3 429/5/3
f 441/1/3 428/1/3 427/1/3
f 441/5/3 429/5/3 428/5/3
f 442/5/3 430/5/3 441/5/3
f 443/1/3 433/1/3 432/1/3
f 443/5/3 430/5/3 442/5/3
f 443/1/3 432/1/3 431/1/3
f 443/1/3 431/1/3 430/1/3
f 444/1/3 433/1/3 443/1/3
f 445/5/3 438/5/3 440/5/3
f 445/6/3 440/6/3 439/6/3
f 446/8/3 408/8/3 438/8/3
f 446/5/3 438/5/3 445/5/3
f 447/8/3 408/8/3 446/8/3
f 448/1/3 433/1/3 444/1/3
f 449/5/3 435/5/3 434/5/3
f 449/1/3 433/1/3 448/1/3
f 449/5/3 434/5/3 433/5/3
f 450/5/3 435/5/3 449/5/3
f 451/6/3 445/6/3 439/6/3
f 451/5/3 435/5/3 450/5/3
f 451/6/3 439/6/3 435/6/3
f 451/6/3 446/6/3 445/6/3
f 452/5/3 409/5/3 408/5/3
f 452/8/3 408/8/3 447/8/3
f 453/5/3 409/5/3 452/5/3
f 454/5/3 409/5/3 453/5/3
f 456/1/3 442/1/3 441/1/3
f 456/5/3 444/5/3 443/5/3
f 456/5/3 443/5/3 442/5/3
f 457/5/3 444/5/3 456/5/3
f 458/1/3 448/1/3 444/1/3
f 458/5/3 444/5/3 457/5/3
f 459/5/3 450/5/3 449/5/3
f 459/1/3 448/1/3 458/1/3
f 459/5/3 449/5/3 448/5/3
f 460/6/3 446/6/3 451/6/3
f 460/6/3 451/6/3 450/6/3
f 460/5/3 447/5/3 446/5/3
f 461/8/3 452/8/3 447/8/3
f 461/5/3 447/5/3 460/5/3
f 461/8/3 453/8/3 452/8/3
f 462/8/3 453/8/3 461/8/3
f 463/5/3 458/5/3 457/5/3
f 463/5/3 459/5/3 458/5/3
f 463/1/3 457/1/3 456/1/3
f 464/5/3 459/5/3 463/5/3
f 465/6/3 461/6/3 460/6/3
f 465/6/3 460/6/3 450/6/3
f 466/5/3 462/5/3 461/5/3
f 466/6/3 461/6/3 465/6/3
f 467/6/3 465/6/3 450/6/3
f 468/7/3 466/7/3 465/7/3
f 468/6/3 465/6/3 467/6/3
f 469/1/3 424/1/3 423/1/3
f 469/2/3 411/2/3 410/2/3
f 469/1/3 423/1/3 411/1/3
f 470/1/3 424/1/3 469/1/3
f 471/5/3 459/5/3 464/5/3
f 471/1/3 464/1/3 463/1/3
f 472/5/3 450/5/3 459/5/3
f 472/5/3 459/5/3 471/5/3
f 473/7/3 466/7/3 468/7/3
f 473/7/3 468/7/3 467/7/3
f 474/5/3 462/5/3 466/5/3
f 474/7/3 466/7/3 473/7/3
f 475/2/3 470/2/3 469/2/3
f 475/2/3 469/2/3 410/2/3
f 476/2/3 470/2/3 475/2/3
f 477/1/3 471/1/3 463/1/3
f 477/1/3 472/1/3 471/1/3
f 477/1/3 441/1/3 427/1/3
f 477/1/3 463/1/3 456/1/3
f 477/1/3 427/1/3 415/1/3
f 477/1/3 456/1/3 441/1/3
f 478/5/3 450/5/3 472/5/3
f 478/1/3 472/1/3 477/1/3
f 479/7/3 473/7/3 467/7/3
f 479/6/3 467/6/3 450/6/3
f 480/7/3 473/7/3 479/7/3
f 481/6/3 474/6/3 473/6/3
f 481/7/3 473/7/3 480/7/3
f 482/5/3 462/5/3 474/5/3
f 482/6/3 474/6/3 481/6/3
f 483/1/3 477/1/3 415/1/3
f 483/5/3 478/5/3 477/5/3
f 484/5/3 478/5/3 483/5/3
f 485/6/3 480/6/3 479/6/3
f 485/7/3 481/7/3 480/7/3
f 485/7/3 482/7/3 481/7/3
f 486/5/3 462/5/3 482/5/3
f 486/7/3 482/7/3 485/7/3
f 487/5/3 478/5/3 484/5/3
f 487/1/3 484/1/3 483/1/3
f 488/5/3 450/5/3 478/5/3
f 488/5/3 478/5/3 487/5/3
f 489/6/3 485/6/3 479/6/3
f 489/5/3 450/5/3 488/5/3
f 489/6/3 486/6/3 485/6/3
f 489/6/3 479/6/3 450/6/3
f 490/6/3 486/6/3 489/6/3
f 491/6/3 486/6/3 490/6/3
f 492/5/3 462/5/3 486/5/3
f 492/6/3 486/6/3 491/6/3
f 493/8/3 453/8/3 462/8/3
f 493/5/3 462/5/3 492/5/3
f 494/1/3 476/1/3 475/1/3
f 495/1/3 476/1/3 494/1/3
f 496/6/3 491/6/3 490/6/3
f 496/5/3 489/5/3 488/5/3
f 496/5/3 490/5/3 489/5/3
f 497/5/3 492/5/3 491/5/3
f 497/6/3 491/6/3 496/6/3
f 498/8/3 493/8/3 492/8/3
f 498/5/3 492/5/3 497/5/3
f 499/8/3 453/8/3 493/8/3
f 499/8/3 493/8/3 498/8/3
f 500/5/3 455/5/3 454/5/3
f 500/8/3 453/8/3 499/8/3
f 500/5/3 454/5/3 453/5/3
f 501/5/3 455/5/3 500/5/3
f 502/5/3 455/5/3 501/5/3
f 503/1/3 488/1/3 487/1/3
f 503/5/3 496/5/3 488/5/3
f 503/5/3 497/5/3 496/5/3
f 504/5/3 497/5/3 503/5/3
f 505/5/3 497/5/3 504/5/3
f 506/8/3 499/8/3 498/8/3
f 506/5/3 497/5/3 505/5/3
f 506/8/3 498/8/3 497/8/3
f 507/2/3 475/2/3 410/2/3
f 508/1/3 494/1/3 475/1/3
f 508/2/3 475/2/3 507/2/3
f 509/1/3 494/1/3 508/1/3
f 510/1/3 504/1/3 503/1/3
f 510/1/3 487/1/3 483/1/3
f 510/1/3 483/1/3 415/1/3
f 510/1/3 503/1/3 487/1/3
f 511/1/3 504/1/3 510/1/3
f 512/5/3 505/5/3 504/5/3
f 512/1/3 504/1/3 511/1/3
f 513/5/3 505/5/3 512/5/3
f 514/1/3 513/1/3 512/1/3
f 514/1/3 512/1/3 511/1/3
f 515/5/3 505/5/3 513/5/3
f 515/1/3 513/1/3 514/1/3
f 516/8/3 506/8/3 505/8/3
f 516/5/3 505/5/3 515/5/3
f 517/5/3 501/5/3 500/5/3
f 517/8/3 506/8/3 516/8/3
f 517/8/3 499/8/3 506/8/3
f 517/5/3 500/5/3 499/5/3
f 518/5/3 501/5/3 517/5/3
f 525/2/3 520/2/3 519/2/3
f 526/1/3 521/1/3 520/1/3
f 526/2/3 520/2/3 525/2/3
f 527/1/3 521/1/3 526/1/3
f 529/1/3 523/1/3 522/1/3
f 531/1/3 528/1/3 527/1/3
f 532/1/3 528/1/3 531/1/3
f 533/1/3 530/1/3 529/1/3
f 533/1/3 529/1/3 522/1/3
f 534/1/3 530/1/3 533/1/3
f 538/1/3 530/1/3 534/1/3
f 539/2/3 525/2/3 524/2/3
f 540/2/3 525/2/3 539/2/3
f 542/1/3 536/1/3 535/1/3
f 543/1/3 536/1/3 542/1/3
f 544/1/3 538/1/3 537/1/3
f 544/1/3 530/1/3 538/1/3
f 545/1/3 530/1/3 544/1/3
f 546/2/3 541/2/3 540/2/3
f 547/1/3 542/1/3 541/1/3
f 547/2/3 541/2/3 546/2/3
f 548/1/3 542/1/3 547/1/3
f 549/1/3 544/1/3 537/1/3
f 550/1/3 544/1/3 549/1/3
f 555/1/3 554/1/3 553/1/3
f 556/1/3 554/1/3 555/1/3
f 557/1/3 552/1/3 551/1/3
f 558/1/3 552/1/3 557/1/3
f 561/4/3 560/4/3 559/4/3
f 562/4/3 560/4/3 561/4/3
f 567/4/3 564/4/3 563/4/3
f 568/4/3 564/4/3 567/4/3
f 569/4/3 567/4/3 563/4/3
f 570/4/3 566/4/3 565/4/3
f 571/4/3 569/4/3 563/4/3
f 571/4/3 570/4/3 569/4/3
f 572/4/3 570/4/3 571/4/3
f 575/4/3 574/4/3 573/4/3
f 576/4/3 570/4/3 572/4/3
f 577/4/3 566/4/3 570/4/3
f 577/4/3 570/4/3 576/4/3
f 578/4/3 566/4/3 577/4/3
f 579/4/3 576/4/3 575/4/3
f 579/4/3 575/4/3 573/4/3
f 579/4/3 577/4/3 576/4/3
f 580/4/3 577/4/3 579/4/3
f 585/1/3 582/1/3 581/1/3
f 586/1/3 582/1/3 585/1/3
f 587/1/3 584/1/3 583/1/3
f 588/1/3 584/1/3 587/1/3
f 593/2/3 590/2/3 589/2/3
f 594/2/3 592/2/3 591/2/3
f 595/2/3 593/2/3 589/2/3
f 595/2/3 594/2/3 593/2/3
f 596/2/3 594/2/3 595/2/3
f 597/2/3 594/2/3 596/2/3
f 598/2/3 592/2/3 594/2/3
f 598/2/3 594/2/3 597/2/3
f 600/2/3 597/2/3 596/2/3
f 601/2/3 600/2/3 599/2/3
f 602/2/3 597/2/3 600/2/3
f 602/2/3 600/2/3 601/2/3
f 603/2/3 592/2/3 598/2/3
f 604/2/3 592/2/3 603/2/3
f 605/2/3 595/2/3 589/2/3
f 607/2/3 605/2/3 589/2/3
f 607/2/3 606/2/3 605/2/3
f 608/2/3 606/2/3 607/2/3
f 609/2/3 606/2/3 608/2/3
f 610/2/3 606/2/3 609/2/3
f 613/2/3 607/2/3 589/2/3
f 614/2/3 607/2/3 613/2/3
f 616/4/3 612/4/3 611/4/3
f 617/4/3 616/4/3 615/4/3
f 618/4/3 612/4/3 616/4/3
f 618/4/3 616/4/3 617/4/3
f 623/2/3 620/2/3 619/2/3
f 624/2/3 620/2/3 623/2/3
f 630/2/3 622/2/3 621/2/3
f 631/2/3 622/2/3 630/2/3
f 632/2/3 629/2/3 628/2/3
f 633/2/3 622/2/3 631/2/3
f 634/2/3 622/2/3 633/2/3
f 637/2/3 632/2/3 628/2/3
f 638/2/3 632/2/3 637/2/3
f 639/2/3 626/2/3 625/2/3
f 640/4/3 627/4/3 626/4/3
f 640/2/3 626/2/3 639/2/3
f 641/4/3 627/4/3 640/4/3
f 642/2/3 636/2/3 635/2/3
f 643/2/3 636/2/3 642/2/3
f 646/4/3 645/4/3 644/4/3
f 647/4/3 645/4/3 646/4/3
f 652/4/3 649/4/3 648/4/3
f 653/4/3 649/4/3 652/4/3
f 654/2/3 651/2/3 650/2/3
f 655/2/3 651/2/3 654/2/3
f 659/2/3 657/2/3 656/2/3
f 659/4/3 658/4/3 657/4/3
f 660/4/3 658/4/3 659/4/3
f 661/2/3 659/2/3 656/2/3
f 661/2/3 660/2/3 659/2/3
f 662/2/3 660/2/3 661/2/3
f 664/2/3 661/2/3 656/2/3
f 665/2/3 664/2/3 663/2/3
f 666/2/3 661/2/3 664/2/3
f 666/2/3 664/2/3 665/2/3
f 667/2/3 661/2/3 666/2/3
f 668/4/3 662/4/3 661/4/3
f 668/2/3 661/2/3 667/2/3
f 669/4/3 662/4/3 668/4/3
f 672/4/3 671/4/3 670/4/3
f 673/4/3 671/4/3 672/4/3
f 676/4/3 675/4/3 674/4/3
f 677/4/3 675/4/3 676/4/3
f 678/2/3 677/2/3 676/2/3
f 679/2/3 677/2/3 678/2/3
f 680/4/3 679/4/3 678/4/3
f 681/4/3 679/4/3 680/4/3
f 684/2/3 683/2/3 682/2/3
f 685/2/3 683/2/3 684/2/3
f 688/1/3 687/1/3 686/1/3
f 689/1/3 687/1/3 688/1/3
f 692/4/3 691/4/3 690/4/3
f 693/4/3 691/4/3 692/4/3
f 694/4/3 691/4/3 693/4/3
f 697/2/3 696/2/3 695/2/3
f 698/2/3 696/2/3 697/2/3
f 703/2/3 700/2/3 699/2/3
f 704/2/3 700/2/3 703/2/3
f 705/2/3 702/2/3 701/2/3
f 706/2/3 702/2/3 705/2/3
f 709/4/3 708/4/3 707/4/3
f 710/4/3 708/4/3 709/4/3
f 714/2/3 712/2/3 711/2/3
f 715/1/3 713/1/3 712/1/3
f 715/2/3 712/2/3 714/2/3
f 716/1/3 713/1/3 715/1/3
f 719/4/3 718/4/3 717/4/3
f 720/4/3 718/4/3 719/4/3
f 721/2/4 722/2/4 723/2/4
f 723/2/4 722/2/4 724/2/4
f 725/1/4 726/1/4 727/1/4
f 725/1/4 727/1/4 729/1/4
f 727/1/4 728/1/4 729/1/4
f 729/1/4 728/1/4 730/1/4
f 731/4/4 732/4/4 733/4/4
f 733/4/4 732/4/4 734/4/4
f 734/4/4 732/4/4 735/4/4
f 736/2/4 737/2/4 738/2/4
f 738/2/4 737/2/4 739/2/4
f 740/2/4 741/2/4 744/2/4
f 744/2/4 741/2/4 745/2/4
f 742/2/4 743/2/4 746/2/4
f 746/2/4 743/2/4 747/2/4
f 748/4/4 749/4/4 750/4/4
f 750/4/4 749/4/4 751/4/4
f 754/2/4 755/2/4 757/2/4
f 755/1/4 756/1/4 758/1/4
f 757/2/4 755/2/4 758/2/4
f 758/1/4 756/1/4 759/1/4
f 752/1/4 753/1/4 760/1/4
f 760/1/4 753/1/4 761/1/4
f 762/4/4 763/4/4 766/4/4
f 763/2/4 764/2/4 767/2/4
f 766/4/4 763/4/4 767/4/4
f 764/4/4 765/4/4 768/4/4
f 767/2/4 764/2/4 768/2/4
f 768/4/4 765/4/4 769/4/4
f 769/4/4 770/4/4 772/4/4
f 771/4/4 772/4/4 774/4/4
f 773/4/4 774/4/4 775/4/4
f 772/4/4 770/4/4 776/4/4
f 775/4/4 774/4/4 776/4/4
f 774/4/4 772/4/4 776/4/4
f 776/4/4 770/4/4 777/4/4
f 777/4/4 770/4/4 778/4/4
f 779/4/4 780/4/4 781/4/4
f 781/4/4 780/4/4 782/4/4
f 783/4/4 784/4/4 785/4/4
f 785/4/4 784/4/4 786/4/4
f 786/2/4 787/2/4 788/2/4
f 788/2/4 787/2/4 789/2/4
f 790/4/4 791/4/4 792/4/4
f 792/4/4 791/4/4 793/4/4
f 794/4/4 795/4/4 796/4/4
f 796/4/4 795/4/4 797/4/4
f 794/4/4 796/4/4 798/4/4
f 798/4/4 796/4/4 799/4/4
f 800/4/4 801/4/4 802/4/4
f 802/4/4 801/4/4 803/4/4
f 800/4/4 802/4/4 804/4/4
f 802/2/4 803/2/4 805/2/4
f 804/4/4 802/4/4 805/4/4
f 803/4/4 801/4/4 806/4/4
f 805/2/4 803/2/4 806/2/4
f 806/4/4 801/4/4 807/4/4
f 811/4/4 812/4/4 813/4/4
f 808/2/4 809/2/4 815/2/4
f 815/2/4 809/2/4 816/2/4
f 810/2/4 811/2/4 819/2/4
f 813/4/4 814/4/4 820/4/4
f 819/2/4 811/2/4 820/2/4
f 811/4/4 813/4/4 820/4/4
f 820/4/4 814/4/4 821/4/4
f 817/2/4 818/2/4 822/2/4
f 822/2/4 818/2/4 823/2/4
f 824/4/4 825/4/4 826/4/4
f 826/4/4 825/4/4 827/4/4
f 829/2/4 830/2/4 831/2/4
f 831/2/4 830/2/4 832/2/4
f 827/4/4 828/4/4 834/4/4
f 834/4/4 828/4/4 835/4/4
f 833/4/4 834/4/4 836/4/4
f 836/4/4 834/4/4 837/4/4
f 838/1/4 839/1/4 840/1/4
f 840/1/4 839/1/4 841/1/4
f 844/4/4 845/4/4 846/4/4
f 846/4/4 847/4/4 850/4/4
f 850/4/4 847/4/4 851/4/4
f 848/4/4 849/4/4 852/4/4
f 852/4/4 849/4/4 853/4/4
f 844/4/4 846/4/4 854/4/4
f 846/4/4 850/4/4 854/4/4
f 854/4/4 850/4/4 855/4/4
f 853/4/4 849/4/4 856/4/4
f 856/4/4 849/4/4 857/4/4
f 842/1/4 843/1/4 858/1/4
f 858/1/4 843/1/4 859/1/4
f 860/1/4 861/1/4 866/1/4
f 866/1/4 861/1/4 867/1/4
f 862/1/4 863/1/4 869/1/4
f 864/2/4 865/2/4 870/2/4
f 870/2/4 865/2/4 871/2/4
f 868/1/4 869/1/4 872/1/4
f 869/1/4 863/1/4 873/1/4
f 872/1/4 869/1/4 873/1/4
f 875/1/4 876/1/4 877/1/4
f 875/1/4 877/1/4 879/1/4
f 877/1/4 878/1/4 879/1/4
f 879/1/4 878/1/4 880/1/4
f 874/2/4 875/2/4 881/2/4
f 875/1/4 879/1/4 882/1/4
f 881/2/4 875/2/4 882/2/4
f 882/1/4 879/1/4 883/1/4
f 886/2/5 885/2/5 884/2/5
f 887/2/5 885/2/5 886/2/5
f 888/2/5 886/2/5 884/2/5
f 889/2/5 886/2/5 888/2/5
f 890/2/5 888/2/5 884/2/5
f 892/2/5 890/2/5 884/2/5
f 892/2/5 891/2/5 890/2/5
f 893/2/5 891/2/5 892/2/5
f 897/2/5 895/2/5 894/2/5
f 898/2/5 895/2/5 897/2/5
f 901/2/5 899/2/5 898/2/5
f 903/2/5 901/2/5 900/2/5
f 904/2/5 899/2/5 901/2/5
f 904/2/5 901/2/5 903/2/5
f 905/2/5 899/2/5 904/2/5
f 906/2/5 903/2/5 902/2/5
f 906/2/5 904/2/5 903/2/5
f 907/2/5 904/2/5 906/2/5
f 908/2/5 904/2/5 907/2/5
f 910/2/5 897/2/5 896/2/5
f 911/2/5 909/2/5 908/2/5
f 911/2/5 908/2/5 907/2/5
f 912/2/5 910/2/5 896/2/5
f 912/2/5 911/2/5 910/2/5
f 913/2/5 909/2/5 911/2/5
f 913/2/5 911/2/5 912/2/5
f 916/2/5 915/2/5 914/2/5
f 917/2/5 915/2/5 916/2/5
f 918/2/5 915/2/5 917/2/5
f 920/2/5 919/2/5 918/2/5
f 920/2/5 918/2/5 917/2/5
f 921/2/5 919/2/5 920/2/5
f 923/2/5 916/2/5 914/2/5
f 924/4/5 923/4/5 922/4/5
f 925/2/5 916/2/5 923/2/5
f 925/4/5 923/4/5 924/4/5
f 926/2/5 916/2/5 925/2/5
f 929/2/5 919/2/5 921/2/5
f 930/2/5 919/2/5 929/2/5
f 932/2/5 927/2/5 926/2/5
f 932/2/5 926/2/5 925/2/5
f 933/2/5 927/2/5 932/2/5
f 934/2/5 927/2/5 933/2/5
f 935/4/5 930/4/5 929/4/5
f 935/4/5 929/4/5 928/4/5
f 936/4/5 930/4/5 935/4/5
f 937/4/5 930/4/5 936/4/5
f 939/2/5 933/2/5 932/2/5
f 940/2/5 937/2/5 936/2/5
f 941/2/5 939/2/5 932/2/5
f 941/2/5 940/2/5 939/2/5
f 941/4/5 932/4/5 931/4/5
f 942/4/5 938/4/5 937/4/5
f 942/2/5 940/2/5 941/2/5
f 942/2/5 937/2/5 940/2/5
f 943/4/5 941/4/5 931/4/5
f 943/4/5 942/4/5 941/4/5
f 944/4/5 938/4/5 942/4/5
f 944/4/5 942/4/5 943/4/5
f 951/4/5 946/4/5 945/4/5
f 952/4/5 946/4/5 951/4/5
f 953/4/5 948/4/5 947/4/5
f 954/4/5 948/4/5 953/4/5
f 955/4/5 950/4/5 949/4/5
f 956/4/5 950/4/5 955/4/5
f 957/4/5 950/4/5 956/4/5
f 959/2/5 957/2/5 956/2/5
f 960/4/5 958/4/5 957/4/5
f 960/2/5 957/2/5 959/2/5
f 961/4/5 951/4/5 945/4/5
f 962/4/5 951/4/5 961/4/5
f 963/4/5 958/4/5 960/4/5
f 964/4/5 958/4/5 963/4/5
f 967/4/5 966/4/5 965/4/5
f 968/4/5 966/4/5 967/4/5
f 971/4/5 970/4/5 969/4/5
f 972/4/5 970/4/5 971/4/5
f 975/4/5 974/4/5 973/4/5
f 976/4/5 974/4/5 975/4/5
f 979/4/5 978/4/5 977/4/5
f 980/4/5 978/4/5 979/4/5
f 983/4/5 982/4/5 981/4/5
f 984/4/5 982/4/5 983/4/5
f 987/4/5 986/4/5 985/4/5
f 988/4/5 986/4/5 987/4/5
f 992/1/5 990/1/5 989/1/5
f 993/1/5 990/1/5 992/1/5
f 994/1/5 990/1/5 993/1/5
f 995/1/5 990/1/5 994/1/5
f 996/1/5 990/1/5 995/1/5
f 998/2/5 993/2/5 992/2/5
f 999/1/5 994/1/5 993/1/5
f 999/2/5 993/2/5 998/2/5
f 1000/2/5 998/2/5 992/2/5
f 1001/2/5 998/2/5 1000/2/5
f 1002/1/5 994/1/5 999/1/5
f 1003/2/5 995/2/5 994/2/5
f 1003/1/5 994/1/5 1002/1/5
f 1004/2/5 995/2/5 1003/2/5
f 1005/2/5 995/2/5 1004/2/5
f 1006/2/5 995/2/5 1005/2/5
f 1007/2/5 995/2/5 1006/2/5
f 1008/1/5 997/1/5 996/1/5
f 1008/2/5 995/2/5 1007/2/5
f 1008/1/5 996/1/5 995/1/5
f 1009/1/5 1008/1/5 1007/1/5
f 1010/1/5 997/1/5 1008/1/5
f 1010/1/5 1008/1/5 1009/1/5
f 1011/1/5 992/1/5 991/1/5
f 1011/2/5 1000/2/5 992/2/5
f 1012/2/5 1000/2/5 1011/2/5
f 1014/3/5 1010/3/5 1009/3/5
f 1015/1/5 997/1/5 1010/1/5
f 1015/3/5 1010/3/5 1014/3/5
f 1017/1/5 1015/1/5 1014/1/5
f 1018/1/5 1013/1/5 1012/1/5
f 1018/1/5 1012/1/5 1011/1/5
f 1019/1/5 1017/1/5 1016/1/5
f 1020/1/5 1018/1/5 1011/1/5
f 1020/1/5 1019/1/5 1018/1/5
f 1020/1/5 1011/1/5 991/1/5
f 1021/1/5 1019/1/5 1020/1/5
f 1022/1/5 1019/1/5 1021/1/5
f 1023/1/5 1017/1/5 1019/1/5
f 1023/1/5 1019/1/5 1022/1/5
f 1023/1/5 1015/1/5 1017/1/5
f 1023/1/5 997/1/5 1015/1/5
f 1026/1/5 1025/1/5 1024/1/5
f 1027/1/5 1025/1/5 1026/1/5
f 1030/1/5 1029/1/5 1028/1/5
f 1031/1/5 1029/1/5 1030/1/5
f 1034/1/5 1033/1/5 1032/1/5
f 1035/1/5 1033/1/5 1034/1/5
f 1036/1/6 1037/1/6 1041/1/6
f 1041/1/6 1037/1/6 1042/1/6
f 1038/1/6 1039/1/6 1043/1/6
f 1043/1/6 1039/1/6 1044/1/6
f 1044/1/6 1045/1/6 1046/1/6
f 1046/1/6 1045/1/6 1047/1/6
f 1046/2/6 1047/2/6 1048/2/6
f 1048/2/6 1047/2/6 1049/2/6
f 1040/1/6 1041/1/6 1050/1/6
f 1050/1/6 1041/1/6 1051/1/6
f 1048/1/6 1049/1/6 1052/1/6
f 1052/1/6 1049/1/6 1053/1/6
f 1050/2/6 1051/2/6 1054/2/6
f 1054/2/6 1051/2/6 1055/2/6
f 1058/1/6 1059/1/6 1060/1/6
f 1060/1/6 1059/1/6 1061/1/6
f 1056/1/6 1057/1/6 1062/1/6
f 1062/1/6 1057/1/6 1063/1/6
f 1064/1/6 1065/1/6 1069/1/6
f 1066/1/6 1067/1/6 1070/1/6
f 1068/1/6 1069/1/6 1072/1/6
f 1069/1/6 1065/1/6 1072/1/6
f 1065/2/6 1066/2/6 1073/2/6
f 1072/1/6 1065/1/6 1073/1/6
f 1070/1/6 1071/1/6 1074/1/6
f 1073/2/6 1066/2/6 1074/2/6
f 1066/1/6 1070/1/6 1074/1/6
f 1074/1/6 1071/1/6 1075/1/6
f 1075/1/6 1071/1/6 1076/1/6
f 1076/1/6 1071/1/6 1077/1/6
f 1077/1/6 1071/1/6 1078/1/6
f 1077/2/6 1078/2/6 1079/2/6
f 1079/2/6 1078/2/6 1080/2/6
f 1068/1/6 1072/1/6 1081/1/6
f 1081/1/6 1072/1/6 1082/1/6
f 1079/1/6 1080/1/6 1085/1/6
f 1082/2/6 1083/2/6 1087/2/6
f 1081/2/6 1082/2/6 1087/2/6
f 1087/2/6 1083/2/6 1088/2/6
f 1088/2/6 1083/2/6 1089/2/6
f 1084/1/6 1085/1/6 1090/1/6
f 1085/1/6 1080/1/6 1091/1/6
f 1090/1/6 1085/1/6 1091/1/6
f 1086/1/6 1087/1/6 1092/1/6
f 1087/1/6 1088/1/6 1092/1/6
f 1091/1/6 1080/1/6 1093/1/6
f 1086/1/6 1092/1/6 1094/1/6
f 1092/1/6 1093/1/6 1094/1/6
f 1094/1/6 1093/1/6 1095/1/6
f 1095/1/6 1093/1/6 1096/1/6
f 1093/1/6 1080/1/6 1097/1/6
f 1096/1/6 1093/1/6 1097/1/6
f 1098/4/6 1099/4/6 1100/4/6
f 1100/4/6 1099/4/6 1101/4/6
f 1102/4/6 1103/4/6 1104/4/6
f 1104/4/6 1103/4/6 1105/4/6
f 1106/4/6 1107/4/6 1108/4/6
f 1108/4/6 1107/4/6 1109/4/6
f 1110/4/6 1111/4/6 1112/4/6
f 1112/4/6 1111/4/6 1113/4/6
f 1114/4/6 1115/4/6 1116/4/6
f 1116/4/6 1115/4/6 1117/4/6
f 1118/4/6 1119/4/6 1122/4/6
f 1122/4/6 1119/4/6 1123/4/6
f 1120/4/6 1121/4/6 1124/4/6
f 1124/4/6 1121/4/6 1125/4/6
f 1123/4/6 1124/4/6 1126/4/6
f 1126/4/6 1124/4/6 1127/4/6
f 1128/4/6 1129/4/6 1130/4/6
f 1130/4/6 1129/4/6 1131/4/6
f 1132/4/6 1133/4/6 1136/4/6
f 1136/4/6 1133/4/6 1137/4/6
f 1134/4/6 1135/4/6 1138/4/6
f 1138/4/6 1135/4/6 1139/4/6
f 1139/4/6 1135/4/6 1140/4/6
f 1132/4/6 1136/4/6 1142/4/6
f 1142/4/6 1136/4/6 1143/4/6
f 1140/4/6 1141/4/6 1144/4/6
f 1139/4/6 1140/4/6 1144/4/6
f 1144/4/6 1141/4/6 1145/4/6
f 1145/4/6 1141/4/6 1146/4/6
f 1146/4/6 1141/4/6 1147/4/6
f 1147/4/6 1141/4/6 1148/4/6
f 1148/4/6 1141/4/6 1149/4/6
f 1132/4/6 1142/4/6 1150/4/6
f 1150/4/6 1142/4/6 1151/4/6
f 1153/4/6 1154/4/6 1156/4/6
f 1151/4/6 1152/4/6 1157/4/6
f 1155/4/6 1156/4/6 1158/4/6
f 1151/4/6 1157/4/6 1159/4/6
f 1157/4/6 1158/4/6 1159/4/6
f 1158/4/6 1156/4/6 1160/4/6
f 1159/4/6 1158/4/6 1160/4/6
f 1156/4/6 1154/4/6 1160/4/6
f 1161/5/6 1162/5/6 1165/5/6
f 1165/5/6 1162/5/6 1166/5/6
f 1163/5/6 1164/5/6 1167/5/6
f 1167/5/6 1164/5/6 1168/5/6
f 1169/5/6 1170/5/6 1173/5/6
f 1173/5/6 1170/5/6 1174/5/6
f 1171/1/6 1172/1/6 1177/1/6
f 1177/1/6 1172/1/6 1178/1/6
f 1175/1/6 1176/1/6 1179/1/6
f 1179/1/6 1176/1/6 1180/1/6
f 1181/1/6 1182/1/6 1185/1/6
f 1183/1/6 1184/1/6 1186/1/6
f 1181/1/6 1185/1/6 1187/1/6
f 1185/1/6 1186/1/6 1187/1/6
f 1186/1/6 1184/1/6 1188/1/6
f 1187/1/6 1186/1/6 1188/1/6
f 1189/1/6 1190/1/6 1191/1/6
f 1191/1/6 1190/1/6 1192/1/6
f 1193/1/6 1194/1/6 1195/1/6
f 1193/1/6 1195/1/6 1197/1/6
f 1195/1/6 1196/1/6 1197/1/6
f 1197/1/6 1196/1/6 1198/1/6
f 1193/1/6 1197/1/6 1199/1/6
f 1199/1/6 1197/1/6 1200/1/6
f 1198/1/6 1196/1/6 1201/1/6
f 1201/1/6 1196/1/6 1202/1/6
f 1200/1/6 1197/1/6 1203/1/6
f 1198/1/6 1201/1/6 1204/1/6
f 1200/1/6 1203/1/6 1205/1/6
f 1203/1/6 1204/1/6 1205/1/6
f 1204/1/6 1201/1/6 1206/1/6
f 1205/1/6 1204/1/6 1206/1/6
f 1207/4/6 1208/4/6 1209/4/6
f 1209/4/6 1208/4/6 1210/4/6
f 1211/4/6 1212/4/6 1213/4/6
f 1213/4/6 1212/4/6 1214/4/6
f 1214/4/6 1212/4/6 1215/4/6
f 1215/4/6 1212/4/6 1216/4/6
f 1214/4/6 1215/4/6 1217/4/6
f 1217/4/6 1215/4/6 1218/4/6
f 1211/4/6 1213/4/6 1219/4/6
f 1211/4/6 1219/4/6 1223/4/6
f 1219/4/6 1220/4/6 1223/4/6
f 1223/4/6 1220/4/6 1224/4/6
f 1224/4/6 1220/4/6 1225/4/6
f 1221/4/6 1222/4/6 1226/4/6
f 1226/4/6 1222/4/6 1227/4/6
f 1216/4/6 1212/4/6 1228/4/6
f 1226/4/6 1227/4/6 1229/4/6
f 1227/4/6 1228/4/6 1229/4/6
f 1225/4/6 1226/4/6 1229/4/6
f 1224/4/6 1225/4/6 1229/4/6
f 1228/4/6 1212/4/6 1230/4/6
f 1229/4/6 1228/4/6 1230/4/6
f 1231/4/6 1232/4/6 1235/4/6
f 1235/4/6 1232/4/6 1236/4/6
f 1233/4/6 1234/4/6 1237/4/6
f 1237/4/6 1234/4/6 1238/4/6
f 1239/4/6 1240/4/6 1241/4/6
f 1241/4/6 1240/4/6 1242/4/6
f 1243/4/6 1244/4/6 1247/4/6
f 1244/2/6 1245/2/6 1248/2/6
f 1247/4/6 1244/4/6 1248/4/6
f 1245/4/6 1246/4/6 1249/4/6
f 1248/2/6 1245/2/6 1249/2/6
f 1249/4/6 1246/4/6 1250/4/6
f 1243/4/6 1247/4/6 1251/4/6
f 1251/4/6 1247/4/6 1252/4/6
f 1250/4/6 1246/4/6 1255/4/6
f 1252/4/6 1253/4/6 1256/4/6
f 1256/4/6 1253/4/6 1257/4/6
f 1254/4/6 1255/4/6 1258/4/6
f 1255/4/6 1246/4/6 1259/4/6
f 1258/4/6 1255/4/6 1259/4/6
f 1260/4/6 1261/4/6 1264/4/6
f 1261/2/6 1262/2/6 1264/2/6
f 1262/4/6 1263/4/6 1265/4/6
f 1264/2/6 1262/2/6 1265/2/6
f 1260/4/6 1264/4/6 1266/4/6
f 1264/4/6 1265/4/6 1266/4/6
f 1265/4/6 1263/4/6 1267/4/6
f 1266/4/6 1265/4/6 1267/4/6
