%YAML 1.1
%TAG !u! tag:unity3d.com,2011:
--- !u!162 &1
EditorUserSettings:
  m_ObjectHideFlags: 0
  serializedVersion: 4
  m_ConfigSettings:
    RecentlyUsedScenePath-0:
      value: 22424703114646680e0b0227036c7319111f0c062d2a68252320092a
      flags: 0
    RecentlyUsedScenePath-1:
      value: 22424703114646680e0b0227036c7315001214396304232628252260adcc312ee7eb09baa92f31352d1b
      flags: 0
    RecentlyUsedScenePath-2:
      value: 22424703114646680e0b0227036c6b3229443b39623d28393930
      flags: 0
    RecentlyUsedScenePath-3:
      value: 22424703114646680e0b0227036c7315001214396304232628252261adcc312ee7eb09bba92f31352d1b
      flags: 0
    RecentlyUsedScenePath-4:
      value: 224247031146466e24412f2d1e374d1f1a1b1d380129367e38271427fb
      flags: 0
    RecentlyUsedScenePath-5:
      value: 224247031146466e24412f301527560405590d24253c3f
      flags: 0
    RecentlyUsedScenePath-6:
      value: 224247031146466e244128271137572315051d2f2266333e243d04
      flags: 0
    RecentlyUsedScenePath-7:
      value: 224247031146466e24413c2305305a3d13190d6439262f2434
      flags: 0
    RecentlyUsedScenePath-8:
      value: 224247031146466e24412123192d72151802563f22213229
      flags: 0
    RecentlyUsedScenePath-9:
      value: 22424703114646680e0b0227036c731500121439630128243f261926e1f43d37ecd81aecf13f33722c0ce6281d
      flags: 0
    vcPerforcePassword:
      value: 005057072b742d7a595c
      flags: 1
    vcPerforceServer:
      value: 1042585c5307470d59405f755e740d4a42424d7c7a
      flags: 0
    vcPerforceUsername:
      value: 0e565b081f54055e17
      flags: 0
    vcPerforceWorkspace:
      value: 045c400d3a5f08565f5f412f112653
      flags: 0
    vcSharedLogLevel:
      value: 0d5e400f0650
      flags: 0
  m_VCAutomaticAdd: 1
  m_VCDebugCom: 0
  m_VCDebugCmd: 0
  m_VCDebugOut: 0
  m_SemanticMergeMode: 2
  m_VCShowFailedCheckout: 1
  m_VCOverwriteFailedCheckoutAssets: 1
  m_VCProjectOverlayIcons: 1
  m_VCHierarchyOverlayIcons: 1
  m_VCOtherOverlayIcons: 1
  m_VCAllowAsyncUpdate: 1
